C:\Users\Akhila Edla\Documents\workspace-spring-tool-suite-4-4.9.0.RELEASE\IngBankingSelenium\src\test\java\com\ingBankingSelenium\Utilities\XLUtilies.java
C:\Users\Akhila Edla\Documents\workspace-spring-tool-suite-4-4.9.0.RELEASE\IngBankingSelenium\src\test\java\com\ingBankingSelenium\TestCases\TC_DDTest_001.java
C:\Users\Akhila Edla\Documents\workspace-spring-tool-suite-4-4.9.0.RELEASE\IngBankingSelenium\src\test\java\com\ingBankingSelenium\Utilities\Reporting.java
C:\Users\Akhila Edla\Documents\workspace-spring-tool-suite-4-4.9.0.RELEASE\IngBankingSelenium\src\test\java\com\ingBankingSelenium\pageObjects\LoginPage.java
C:\Users\Akhila Edla\Documents\workspace-spring-tool-suite-4-4.9.0.RELEASE\IngBankingSelenium\src\test\java\com\ingBankingSelenium\TestCases\TC_LoginTest_001.java
C:\Users\Akhila Edla\Documents\workspace-spring-tool-suite-4-4.9.0.RELEASE\IngBankingSelenium\src\test\java\com\ingBankingSelenium\TestCases\LoginBaseClass.java
C:\Users\Akhila Edla\Documents\workspace-spring-tool-suite-4-4.9.0.RELEASE\IngBankingSelenium\src\test\java\com\ingBankingSelenium\Utilities\ReadConfig.java
C:\Users\Akhila Edla\Documents\workspace-spring-tool-suite-4-4.9.0.RELEASE\IngBankingSelenium\src\test\java\com\ingBankingSelenium\pageObjects\FacebookLoginPage.java
