[main] INFO  ebanking  - URL is Opened
[main] INFO  ebanking  - Enter username
[main] INFO  ebanking  - Enter pasword
[main] INFO  ebanking  - click pn login page
[main] INFO  ebanking  - login test failed
